num_concurrent_users, num_requests, num_failures, median_latency_rt, average_latency_rt, minimum_latency_rt, maximum_latency_rt, avg_content_size, throughput_rps
10,0,0,0,0,0,0,0,0.00
20,0,0,0,0,0,0,0,0.00
30,0,0,0,0,0,0,0,0.00
40,8,0,3500,3551,3196,3901,149,2.18
50,8,0,3500,3551,3196,3901,149,2.18
60,8,0,3500,3551,3196,3901,149,2.18
70,18,0,4000,4235,3196,5302,182,3.18
80,18,0,4000,4235,3196,5302,182,3.18
90,18,0,4000,4235,3196,5302,182,3.18
100,28,0,4900,5210,3196,7667,165,3.23
110,28,0,4900,5210,3196,7667,165,3.23
120,28,0,4900,5210,3196,7667,165,3.23
130,28,0,4900,5210,3196,7667,165,3.23
140,38,0,5800,6637,3196,11488,177,2.78
160,38,0,5800,6637,3196,11488,177,2.78
170,38,0,5800,6637,3196,11488,177,2.78
180,38,0,5800,6637,3196,11488,177,2.78
190,38,0,5800,6637,3196,11488,177,2.78
200,38,0,5800,6637,3196,11488,177,2.78
210,39,0,6400,6874,3196,15861,179,1.98
220,39,0,6400,6874,3196,15861,179,1.98
230,39,0,6400,6874,3196,15861,179,1.98
240,39,0,6400,6874,3196,15861,179,1.98
250,39,0,6400,6874,3196,15861,179,1.98
260,39,0,6400,6874,3196,15861,179,1.98
270,49,0,7300,9919,3196,23094,177,1.84
280,49,0,7300,9919,3196,23094,177,1.84
290,49,0,7300,9919,3196,23094,177,1.84
300,49,0,7300,9919,3196,23094,177,1.84
310,49,0,7300,9919,3196,23094,177,1.84
320,49,0,7300,9919,3196,23094,177,1.84
330,49,0,7300,9919,3196,23094,177,1.84
340,49,0,7300,9919,3196,23094,177,1.84
350,58,0,9600,12786,3196,29122,191,1.72
360,58,0,9600,12786,3196,29122,191,1.72
370,58,0,9600,12786,3196,29122,191,1.72
380,58,0,9600,12786,3196,29122,191,1.72
390,58,0,9600,12786,3196,29122,191,1.72
400,58,0,9600,12786,3196,29122,191,1.72
410,58,0,9600,12786,3196,29122,191,1.72
420,58,0,9600,12786,3196,29122,191,1.72
430,68,0,11000,16269,3196,37582,177,1.63
440,68,0,11000,16269,3196,37582,177,1.63
450,68,0,11000,16269,3196,37582,177,1.63
460,68,0,11000,16269,3196,37582,177,1.63
470,68,0,11000,16269,3196,37582,177,1.63
480,68,0,11000,16269,3196,37582,177,1.63
490,68,0,11000,16269,3196,37582,177,1.63
500,68,0,11000,16269,3196,37582,177,1.63
