num_concurrent_users, num_requests, num_failures, median_latency_rt, average_latency_rt, minimum_latency_rt, maximum_latency_rt, avg_content_size, throughput_rps
10,210,0,750,859,211,2531,166,20.16
20,0,0,0,0,0,0,0,0.00
30,10,0,730,779,326,1226,135,8.22
40,20,0,780,804,326,1282,163,9.02
50,30,0,780,791,309,1282,159,9.33
60,50,0,650,704,243,1282,179,15.54
70,70,0,590,665,243,1282,177,16.60
80,100,0,690,697,243,1282,177,16.09
90,120,0,750,719,243,1282,179,16.63
100,140,0,750,721,243,1282,177,19.40
110,160,0,780,790,243,1570,175,17.36
120,170,0,820,861,243,2188,177,18.44
130,180,0,830,956,243,2751,177,17.62
140,200,0,850,1182,243,3984,180,16.37
150,220,0,880,1437,243,4576,178,16.65
160,250,0,990,1772,243,4876,174,17.58
170,280,0,1100,1989,243,4876,172,18.40
180,300,0,1300,2091,243,4876,171,19.72
190,320,0,1600,2173,243,4876,172,19.73
200,340,0,2200,2262,243,4876,171,18.66
210,350,0,2500,2317,243,4876,170,19.21
220,370,0,2900,2443,243,5153,171,18.30
230,400,0,3200,2633,243,5652,172,18.85
240,430,0,3300,2819,243,5692,170,19.35
250,440,0,3400,2888,243,6099,170,19.80
260,450,0,3400,2964,243,6607,170,19.38
270,460,0,3500,3058,243,7709,170,19.00
280,470,0,3500,3163,243,8282,170,18.64
290,480,0,3600,3288,243,9553,169,17.64
300,490,0,3600,3413,243,10219,170,18.00
310,510,0,3700,3677,243,10746,169,18.07
320,540,0,3800,4044,243,11229,169,17.87
330,560,0,3800,4264,243,11229,168,18.53
340,580,0,3900,4472,243,11229,167,18.00
350,600,0,4000,4676,243,11229,168,18.06
360,620,0,4100,4888,243,11951,169,18.12
370,630,0,4100,5001,243,12463,169,18.41
380,650,0,4300,5227,243,13214,169,17.95
390,660,0,4400,5347,243,13793,169,17.73
400,660,0,4400,5347,243,13793,169,17.73
410,670,0,4400,5475,243,14689,168,17.53
420,680,0,4500,5615,243,15906,168,17.34
430,700,0,4600,5912,243,17405,167,16.98
440,710,0,4700,6055,243,17405,167,17.23
450,730,0,4700,6332,243,17405,167,16.89
460,740,0,4800,6468,243,17405,167,16.74
470,750,0,4800,6607,243,17405,166,16.96
480,770,0,5000,6876,243,17407,167,16.66
490,790,0,5100,7135,243,17407,167,16.73
500,820,0,5200,7499,243,17407,167,17.01
